{
  "directed": false,
  "multigraph": false,
  "graph": {},
  "nodes": [
    {
      "type": "PERSON",
      "name": "falcon",
      "community": 1,
      "id": "0"
    },
    {
      "type": "PERSON",
      "name": "orangutan",
      "community": 0,
      "id": "1"
    },
    {
      "type": "PERSON",
      "name": "frigatebird",
      "community": 1,
      "id": "2"
    },
    {
      "type": "PERSON",
      "name": "elephant seal",
      "community": 1,
      "id": "3"
    },
    {
      "type": "PERSON",
      "name": "rabbit",
      "community": 2,
      "id": "4"
    },
    {
      "type": "PERSON",
      "name": "panther",
      "community": 2,
      "id": "5"
    },
    {
      "type": "PERSON",
      "name": "black rhinoceros",
      "community": 0,
      "id": "6"
    },
    {
      "type": "PERSON",
      "name": "lemur",
      "community": 2,
      "id": "7"
    },
    {
      "type": "PERSON",
      "name": "crocodile",
      "community": 2,
      "id": "8"
    },
    {
      "type": "PERSON",
      "name": "honey badger",
      "community": 0,
      "id": "9"
    },
    {
      "type": "PERSON",
      "name": "starfish",
      "community": 2,
      "id": "10"
    },
    {
      "type": "PERSON",
      "name": "red-tailed hawk",
      "community": 2,
      "id": "11"
    },
    {
      "type": "PERSON",
      "name": "glass frog",
      "community": 0,
      "id": "12"
    },
    {
      "type": "PERSON",
      "name": "goose",
      "community": 1,
      "id": "13"
    },
    {
      "type": "PERSON",
      "name": "panda",
      "community": 2,
      "id": "14"
    },
    {
      "type": "PERSON",
      "name": "reticulated python",
      "community": 1,
      "id": "15"
    },
    {
      "type": "PERSON",
      "name": "leopard",
      "community": 2,
      "id": "16"
    },
    {
      "type": "PERSON",
      "name": "duck",
      "community": 1,
      "id": "17"
    },
    {
      "type": "PERSON",
      "name": "armadillo",
      "community": 1,
      "id": "18"
    },
    {
      "type": "PERSON",
      "name": "ostrich",
      "community": 0,
      "id": "19"
    },
    {
      "type": "PERSON",
      "name": "scarlet macaw",
      "community": 0,
      "id": "20"
    },
    {
      "type": "PERSON",
      "name": "fox",
      "community": 2,
      "id": "21"
    },
    {
      "type": "PERSON",
      "name": "peregrine falcon",
      "community": 2,
      "id": "22"
    },
    {
      "type": "PERSON",
      "name": "horned owl",
      "community": 0,
      "id": "23"
    },
    {
      "type": "PERSON",
      "name": "tarantula",
      "community": 0,
      "id": "24"
    },
    {
      "type": "PERSON",
      "name": "lizard",
      "community": 1,
      "id": "25"
    },
    {
      "type": "PERSON",
      "name": "springhare",
      "community": 2,
      "id": "26"
    },
    {
      "type": "PERSON",
      "name": "serval",
      "community": 0,
      "id": "27"
    },
    {
      "type": "PERSON",
      "name": "frigatebird'",
      "community": 0,
      "id": "28"
    },
    {
      "type": "PERSON",
      "name": "siberian tiger",
      "community": 0,
      "id": "29"
    },
    {
      "type": "PERSON",
      "name": "antelope",
      "community": 2,
      "id": "30"
    },
    {
      "type": "PERSON",
      "name": "spider",
      "community": 2,
      "id": "31"
    },
    {
      "type": "PERSON",
      "name": "moose",
      "community": 1,
      "id": "32"
    },
    {
      "type": "PERSON",
      "name": "crocodile'",
      "community": 1,
      "id": "33"
    },
    {
      "type": "PERSON",
      "name": "ladybug",
      "community": 2,
      "id": "34"
    },
    {
      "type": "PERSON",
      "name": "crocodile'",
      "community": 2,
      "id": "35"
    },
    {
      "type": "PERSON",
      "name": "sea lion",
      "community": 2,
      "id": "36"
    },
    {
      "type": "PERSON",
      "name": "american flamingo",
      "community": 1,
      "id": "37"
    },
    {
      "type": "PERSON",
      "name": "sea lion'",
      "community": 1,
      "id": "38"
    },
    {
      "type": "PERSON",
      "name": "gavial",
      "community": 2,
      "id": "39"
    },
    {
      "type": "PERSON",
      "name": "ladybug'",
      "community": 0,
      "id": "40"
    },
    {
      "type": "PERSON",
      "name": "kiwi",
      "community": 2,
      "id": "41"
    },
    {
      "type": "PERSON",
      "name": "cheetah",
      "community": 1,
      "id": "42"
    },
    {
      "type": "PERSON",
      "name": "alligator",
      "community": 2,
      "id": "43"
    },
    {
      "type": "PERSON",
      "name": "goose'",
      "community": 2,
      "id": "44"
    },
    {
      "type": "PERSON",
      "name": "giant manta ray",
      "community": 1,
      "id": "45"
    },
    {
      "type": "PERSON",
      "name": "box turtle",
      "community": 1,
      "id": "46"
    },
    {
      "type": "PERSON",
      "name": "arctic fox",
      "community": 0,
      "id": "47"
    },
    {
      "type": "PERSON",
      "name": "green tree python",
      "community": 0,
      "id": "48"
    },
    {
      "type": "PERSON",
      "name": "leopard'",
      "community": 2,
      "id": "49"
    },
    {
      "type": "PERSON",
      "name": "spider'",
      "community": 2,
      "id": "50"
    },
    {
      "type": "PERSON",
      "name": "egret",
      "community": 0,
      "id": "51"
    },
    {
      "type": "PERSON",
      "name": "hyena",
      "community": 2,
      "id": "52"
    },
    {
      "type": "PERSON",
      "name": "owl",
      "community": 0,
      "id": "53"
    },
    {
      "type": "PERSON",
      "name": "raccoon",
      "community": 0,
      "id": "54"
    },
    {
      "type": "PERSON",
      "name": "lizard'",
      "community": 0,
      "id": "55"
    },
    {
      "type": "PERSON",
      "name": "crane",
      "community": 1,
      "id": "56"
    },
    {
      "type": "PERSON",
      "name": "sea otter",
      "community": 2,
      "id": "57"
    },
    {
      "type": "PERSON",
      "name": "frigatebird'",
      "community": 1,
      "id": "58"
    },
    {
      "type": "PERSON",
      "name": "saki monkey",
      "community": 2,
      "id": "59"
    },
    {
      "type": "PERSON",
      "name": "honey badger'",
      "community": 0,
      "id": "60"
    },
    {
      "type": "PERSON",
      "name": "eagle",
      "community": 2,
      "id": "61"
    },
    {
      "type": "PERSON",
      "name": "penguin",
      "community": 0,
      "id": "62"
    },
    {
      "type": "PERSON",
      "name": "antelope'",
      "community": 0,
      "id": "63"
    },
    {
      "type": "PERSON",
      "name": "yak",
      "community": 2,
      "id": "64"
    },
    {
      "type": "PERSON",
      "name": "penguin'",
      "community": 2,
      "id": "65"
    },
    {
      "type": "PERSON",
      "name": "flounder",
      "community": 2,
      "id": "66"
    },
    {
      "type": "PERSON",
      "name": "scorpion",
      "community": 1,
      "id": "67"
    },
    {
      "type": "PERSON",
      "name": "goblin shark",
      "community": 0,
      "id": "68"
    },
    {
      "type": "PERSON",
      "name": "caribou",
      "community": 1,
      "id": "69"
    },
    {
      "type": "PERSON",
      "name": "squirrel",
      "community": 1,
      "id": "70"
    },
    {
      "type": "PERSON",
      "name": "african elephant",
      "community": 1,
      "id": "71"
    },
    {
      "type": "PERSON",
      "name": "lemur'",
      "community": 0,
      "id": "72"
    },
    {
      "type": "PERSON",
      "name": "gecko",
      "community": 1,
      "id": "73"
    },
    {
      "type": "PERSON",
      "name": "falcon'",
      "community": 2,
      "id": "74"
    },
    {
      "type": "PERSON",
      "name": "antelope'",
      "community": 0,
      "id": "75"
    },
    {
      "type": "PERSON",
      "name": "sparrow",
      "community": 2,
      "id": "76"
    },
    {
      "type": "PERSON",
      "name": "gorilla",
      "community": 1,
      "id": "77"
    },
    {
      "type": "PERSON",
      "name": "gavial'",
      "community": 2,
      "id": "78"
    },
    {
      "type": "PERSON",
      "name": "anteater",
      "community": 1,
      "id": "79"
    },
    {
      "type": "PERSON",
      "name": "white rhinoceros",
      "community": 1,
      "id": "80"
    },
    {
      "type": "PERSON",
      "name": "gibbon",
      "community": 0,
      "id": "81"
    },
    {
      "type": "PERSON",
      "name": "gnu",
      "community": 2,
      "id": "82"
    },
    {
      "type": "PERSON",
      "name": "deer",
      "community": 0,
      "id": "83"
    },
    {
      "type": "PERSON",
      "name": "indian elephant",
      "community": 2,
      "id": "84"
    },
    {
      "type": "PERSON",
      "name": "albatross",
      "community": 0,
      "id": "85"
    },
    {
      "type": "PERSON",
      "name": "gavial'",
      "community": 1,
      "id": "86"
    },
    {
      "type": "PERSON",
      "name": "koala",
      "community": 0,
      "id": "87"
    },
    {
      "type": "PERSON",
      "name": "gnu'",
      "community": 2,
      "id": "88"
    },
    {
      "type": "PERSON",
      "name": "caecilian",
      "community": 1,
      "id": "89"
    },
    {
      "type": "PERSON",
      "name": "spoonbill",
      "community": 1,
      "id": "90"
    },
    {
      "type": "PERSON",
      "name": "harpy eagle",
      "community": 0,
      "id": "91"
    },
    {
      "type": "PERSON",
      "name": "anteater'",
      "community": 0,
      "id": "92"
    },
    {
      "type": "PERSON",
      "name": "numbat",
      "community": 1,
      "id": "93"
    },
    {
      "type": "PERSON",
      "name": "chameleon",
      "community": 0,
      "id": "94"
    },
    {
      "type": "PERSON",
      "name": "flounder'",
      "community": 1,
      "id": "95"
    },
    {
      "type": "PERSON",
      "name": "seal",
      "community": 0,
      "id": "96"
    },
    {
      "type": "PERSON",
      "name": "tasmanian devil",
      "community": 2,
      "id": "97"
    },
    {
      "type": "PERSON",
      "name": "osprey",
      "community": 1,
      "id": "98"
    },
    {
      "type": "PERSON",
      "name": "reticulated python'",
      "community": 0,
      "id": "99"
    },
    {
      "type": "DOCUMENT",
      "time": 1,
      "id": "h0"
    },
    {
      "type": "DOCUMENT",
      "time": 1,
      "id": "h1"
    },
    {
      "type": "DOCUMENT",
      "time": 1,
      "id": "h2"
    },
    {
      "type": "DOCUMENT",
      "time": 1,
      "id": "h3"
    },
    {
      "type": "DOCUMENT",
      "time": 1,
      "id": "h4"
    },
    {
      "type": "DOCUMENT",
      "time": 1,
      "id": "h5"
    },
    {
      "type": "DOCUMENT",
      "time": 1,
      "id": "h6"
    },
    {
      "type": "DOCUMENT",
      "time": 1,
      "id": "h7"
    },
    {
      "type": "DOCUMENT",
      "time": 1,
      "id": "h8"
    },
    {
      "type": "DOCUMENT",
      "time": 1,
      "id": "h9"
    },
    {
      "type": "DOCUMENT",
      "time": 1,
      "id": "h10"
    },
    {
      "type": "DOCUMENT",
      "time": 1,
      "id": "h11"
    },
    {
      "type": "DOCUMENT",
      "time": 1,
      "id": "h12"
    },
    {
      "type": "DOCUMENT",
      "time": 1,
      "id": "h13"
    },
    {
      "type": "DOCUMENT",
      "time": 1,
      "id": "h14"
    },
    {
      "type": "DOCUMENT",
      "time": 1,
      "id": "h15"
    },
    {
      "type": "DOCUMENT",
      "time": 1,
      "id": "h16"
    },
    {
      "type": "DOCUMENT",
      "time": 1,
      "id": "h17"
    },
    {
      "type": "DOCUMENT",
      "time": 1,
      "id": "h18"
    },
    {
      "type": "DOCUMENT",
      "time": 1,
      "id": "h19"
    },
    {
      "type": "DOCUMENT",
      "time": 1,
      "id": "h20"
    },
    {
      "type": "DOCUMENT",
      "time": 1,
      "id": "h21"
    },
    {
      "type": "DOCUMENT",
      "time": 1,
      "id": "h22"
    },
    {
      "type": "DOCUMENT",
      "time": 1,
      "id": "h23"
    },
    {
      "type": "DOCUMENT",
      "time": 1,
      "id": "h24"
    },
    {
      "type": "DOCUMENT",
      "time": 1,
      "id": "h25"
    },
    {
      "type": "DOCUMENT",
      "time": 1,
      "id": "h26"
    },
    {
      "type": "DOCUMENT",
      "time": 1,
      "id": "h27"
    },
    {
      "type": "DOCUMENT",
      "time": 1,
      "id": "h28"
    },
    {
      "type": "DOCUMENT",
      "time": 1,
      "id": "h29"
    },
    {
      "type": "DOCUMENT",
      "time": 1,
      "id": "h30"
    },
    {
      "type": "DOCUMENT",
      "time": 1,
      "id": "h31"
    },
    {
      "type": "DOCUMENT",
      "time": 1,
      "id": "h32"
    },
    {
      "type": "DOCUMENT",
      "time": 1,
      "id": "h33"
    },
    {
      "type": "DOCUMENT",
      "time": 1,
      "id": "h34"
    },
    {
      "type": "DOCUMENT",
      "time": 1,
      "id": "h35"
    },
    {
      "type": "DOCUMENT",
      "time": 1,
      "id": "h36"
    },
    {
      "type": "DOCUMENT",
      "time": 1,
      "id": "h37"
    },
    {
      "type": "DOCUMENT",
      "time": 1,
      "id": "h38"
    },
    {
      "type": "DOCUMENT",
      "time": 1,
      "id": "h39"
    },
    {
      "type": "DOCUMENT",
      "time": 1,
      "id": "h40"
    },
    {
      "type": "DOCUMENT",
      "time": 1,
      "id": "h41"
    },
    {
      "type": "DOCUMENT",
      "time": 1,
      "id": "h42"
    },
    {
      "type": "DOCUMENT",
      "time": 1,
      "id": "h43"
    },
    {
      "type": "DOCUMENT",
      "time": 1,
      "id": "h44"
    },
    {
      "type": "DOCUMENT",
      "time": 1,
      "id": "h45"
    },
    {
      "type": "DOCUMENT",
      "time": 1,
      "id": "h46"
    },
    {
      "type": "DOCUMENT",
      "time": 1,
      "id": "h47"
    },
    {
      "type": "DOCUMENT",
      "time": 1,
      "id": "h48"
    },
    {
      "type": "DOCUMENT",
      "time": 1,
      "id": "h49"
    },
    {
      "type": "DOCUMENT",
      "time": 1,
      "id": "h50"
    },
    {
      "type": "DOCUMENT",
      "time": 1,
      "id": "h51"
    },
    {
      "type": "DOCUMENT",
      "time": 1,
      "id": "h52"
    },
    {
      "type": "DOCUMENT",
      "time": 1,
      "id": "h53"
    },
    {
      "type": "DOCUMENT",
      "time": 1,
      "id": "h54"
    },
    {
      "type": "DOCUMENT",
      "time": 1,
      "id": "h55"
    },
    {
      "type": "DOCUMENT",
      "time": 1,
      "id": "h56"
    },
    {
      "type": "DOCUMENT",
      "time": 1,
      "id": "h57"
    },
    {
      "type": "DOCUMENT",
      "time": 1,
      "id": "h58"
    },
    {
      "type": "DOCUMENT",
      "time": 1,
      "id": "h59"
    },
    {
      "type": "DOCUMENT",
      "time": 1,
      "id": "h60"
    },
    {
      "type": "DOCUMENT",
      "time": 1,
      "id": "h61"
    },
    {
      "type": "DOCUMENT",
      "time": 1,
      "id": "h62"
    },
    {
      "type": "DOCUMENT",
      "time": 1,
      "id": "h63"
    },
    {
      "type": "DOCUMENT",
      "time": 1,
      "id": "h64"
    },
    {
      "type": "DOCUMENT",
      "time": 1,
      "id": "h65"
    },
    {
      "type": "DOCUMENT",
      "time": 1,
      "id": "h66"
    },
    {
      "type": "DOCUMENT",
      "time": 1,
      "id": "h67"
    },
    {
      "type": "DOCUMENT",
      "time": 1,
      "id": "h68"
    },
    {
      "type": "DOCUMENT",
      "time": 1,
      "id": "h69"
    },
    {
      "type": "DOCUMENT",
      "time": 1,
      "id": "h70"
    },
    {
      "type": "DOCUMENT",
      "time": 1,
      "id": "h71"
    },
    {
      "type": "DOCUMENT",
      "time": 1,
      "id": "h72"
    },
    {
      "type": "DOCUMENT",
      "time": 1,
      "id": "h73"
    },
    {
      "type": "DOCUMENT",
      "time": 1,
      "id": "h74"
    },
    {
      "type": "DOCUMENT",
      "time": 1,
      "id": "h75"
    },
    {
      "type": "DOCUMENT",
      "time": 1,
      "id": "h76"
    },
    {
      "type": "DOCUMENT",
      "time": 1,
      "id": "h77"
    },
    {
      "type": "DOCUMENT",
      "time": 1,
      "id": "h78"
    },
    {
      "type": "DOCUMENT",
      "time": 1,
      "id": "h79"
    },
    {
      "type": "DOCUMENT",
      "time": 1,
      "id": "h80"
    },
    {
      "type": "DOCUMENT",
      "time": 1,
      "id": "h81"
    },
    {
      "type": "DOCUMENT",
      "time": 1,
      "id": "h82"
    },
    {
      "type": "DOCUMENT",
      "time": 1,
      "id": "h83"
    },
    {
      "type": "DOCUMENT",
      "time": 1,
      "id": "h84"
    },
    {
      "type": "DOCUMENT",
      "time": 1,
      "id": "h85"
    },
    {
      "type": "DOCUMENT",
      "time": 1,
      "id": "h86"
    },
    {
      "type": "DOCUMENT",
      "time": 1,
      "id": "h87"
    },
    {
      "type": "DOCUMENT",
      "time": 1,
      "id": "h88"
    },
    {
      "type": "DOCUMENT",
      "time": 1,
      "id": "h89"
    },
    {
      "type": "DOCUMENT",
      "time": 1,
      "id": "h90"
    },
    {
      "type": "DOCUMENT",
      "time": 1,
      "id": "h91"
    },
    {
      "type": "DOCUMENT",
      "time": 1,
      "id": "h92"
    },
    {
      "type": "DOCUMENT",
      "time": 1,
      "id": "h93"
    },
    {
      "type": "DOCUMENT",
      "time": 1,
      "id": "h94"
    },
    {
      "type": "DOCUMENT",
      "time": 1,
      "id": "h95"
    },
    {
      "type": "DOCUMENT",
      "time": 1,
      "id": "h96"
    },
    {
      "type": "DOCUMENT",
      "time": 1,
      "id": "h97"
    },
    {
      "type": "DOCUMENT",
      "time": 1,
      "id": "h98"
    },
    {
      "type": "DOCUMENT",
      "time": 1,
      "id": "h99"
    }
  ],
  "links": [
    {
      "type": "inclusion",
      "source": "0",
      "target": "h0"
    },
    {
      "type": "inclusion",
      "source": "0",
      "target": "h58"
    },
    {
      "type": "inclusion",
      "source": "0",
      "target": "h60"
    },
    {
      "type": "inclusion",
      "source": "1",
      "target": "h1"
    },
    {
      "type": "inclusion",
      "source": "1",
      "target": "h20"
    },
    {
      "type": "inclusion",
      "source": "1",
      "target": "h24"
    },
    {
      "type": "inclusion",
      "source": "1",
      "target": "h39"
    },
    {
      "type": "inclusion",
      "source": "1",
      "target": "h42"
    },
    {
      "type": "inclusion",
      "source": "1",
      "target": "h47"
    },
    {
      "type": "inclusion",
      "source": "1",
      "target": "h48"
    },
    {
      "type": "inclusion",
      "source": "1",
      "target": "h68"
    },
    {
      "type": "inclusion",
      "source": "2",
      "target": "h2"
    },
    {
      "type": "inclusion",
      "source": "2",
      "target": "h23"
    },
    {
      "type": "inclusion",
      "source": "2",
      "target": "h35"
    },
    {
      "type": "inclusion",
      "source": "2",
      "target": "h56"
    },
    {
      "type": "inclusion",
      "source": "2",
      "target": "h73"
    },
    {
      "type": "inclusion",
      "source": "3",
      "target": "h3"
    },
    {
      "type": "inclusion",
      "source": "3",
      "target": "h32"
    },
    {
      "type": "inclusion",
      "source": "3",
      "target": "h38"
    },
    {
      "type": "inclusion",
      "source": "3",
      "target": "h55"
    },
    {
      "type": "inclusion",
      "source": "4",
      "target": "h4"
    },
    {
      "type": "inclusion",
      "source": "4",
      "target": "h6"
    },
    {
      "type": "inclusion",
      "source": "4",
      "target": "h9"
    },
    {
      "type": "inclusion",
      "source": "4",
      "target": "h22"
    },
    {
      "type": "inclusion",
      "source": "4",
      "target": "h31"
    },
    {
      "type": "inclusion",
      "source": "4",
      "target": "h61"
    },
    {
      "type": "inclusion",
      "source": "4",
      "target": "h65"
    },
    {
      "type": "inclusion",
      "source": "5",
      "target": "h5"
    },
    {
      "type": "inclusion",
      "source": "5",
      "target": "h28"
    },
    {
      "type": "inclusion",
      "source": "6",
      "target": "h0"
    },
    {
      "type": "inclusion",
      "source": "6",
      "target": "h6"
    },
    {
      "type": "inclusion",
      "source": "6",
      "target": "h54"
    },
    {
      "type": "inclusion",
      "source": "6",
      "target": "h75"
    },
    {
      "type": "inclusion",
      "source": "7",
      "target": "h7"
    },
    {
      "type": "inclusion",
      "source": "7",
      "target": "h80"
    },
    {
      "type": "inclusion",
      "source": "8",
      "target": "h8"
    },
    {
      "type": "inclusion",
      "source": "8",
      "target": "h13"
    },
    {
      "type": "inclusion",
      "source": "8",
      "target": "h57"
    },
    {
      "type": "inclusion",
      "source": "8",
      "target": "h68"
    },
    {
      "type": "inclusion",
      "source": "8",
      "target": "h72"
    },
    {
      "type": "inclusion",
      "source": "9",
      "target": "h9"
    },
    {
      "type": "inclusion",
      "source": "9",
      "target": "h33"
    },
    {
      "type": "inclusion",
      "source": "9",
      "target": "h75"
    },
    {
      "type": "inclusion",
      "source": "9",
      "target": "h80"
    },
    {
      "type": "inclusion",
      "source": "9",
      "target": "h85"
    },
    {
      "type": "inclusion",
      "source": "10",
      "target": "h9"
    },
    {
      "type": "inclusion",
      "source": "10",
      "target": "h10"
    },
    {
      "type": "inclusion",
      "source": "10",
      "target": "h16"
    },
    {
      "type": "inclusion",
      "source": "11",
      "target": "h11"
    },
    {
      "type": "inclusion",
      "source": "11",
      "target": "h16"
    },
    {
      "type": "inclusion",
      "source": "11",
      "target": "h50"
    },
    {
      "type": "inclusion",
      "source": "12",
      "target": "h12"
    },
    {
      "type": "inclusion",
      "source": "12",
      "target": "h54"
    },
    {
      "type": "inclusion",
      "source": "13",
      "target": "h7"
    },
    {
      "type": "inclusion",
      "source": "13",
      "target": "h13"
    },
    {
      "type": "inclusion",
      "source": "13",
      "target": "h18"
    },
    {
      "type": "inclusion",
      "source": "13",
      "target": "h40"
    },
    {
      "type": "inclusion",
      "source": "13",
      "target": "h82"
    },
    {
      "type": "inclusion",
      "source": "14",
      "target": "h4"
    },
    {
      "type": "inclusion",
      "source": "14",
      "target": "h14"
    },
    {
      "type": "inclusion",
      "source": "14",
      "target": "h36"
    },
    {
      "type": "inclusion",
      "source": "14",
      "target": "h72"
    },
    {
      "type": "inclusion",
      "source": "15",
      "target": "h15"
    },
    {
      "type": "inclusion",
      "source": "15",
      "target": "h17"
    },
    {
      "type": "inclusion",
      "source": "15",
      "target": "h86"
    },
    {
      "type": "inclusion",
      "source": "16",
      "target": "h16"
    },
    {
      "type": "inclusion",
      "source": "16",
      "target": "h18"
    },
    {
      "type": "inclusion",
      "source": "16",
      "target": "h36"
    },
    {
      "type": "inclusion",
      "source": "16",
      "target": "h75"
    },
    {
      "type": "inclusion",
      "source": "17",
      "target": "h17"
    },
    {
      "type": "inclusion",
      "source": "17",
      "target": "h30"
    },
    {
      "type": "inclusion",
      "source": "17",
      "target": "h69"
    },
    {
      "type": "inclusion",
      "source": "18",
      "target": "h4"
    },
    {
      "type": "inclusion",
      "source": "18",
      "target": "h13"
    },
    {
      "type": "inclusion",
      "source": "18",
      "target": "h18"
    },
    {
      "type": "inclusion",
      "source": "18",
      "target": "h70"
    },
    {
      "type": "inclusion",
      "source": "18",
      "target": "h71"
    },
    {
      "type": "inclusion",
      "source": "18",
      "target": "h85"
    },
    {
      "type": "inclusion",
      "source": "18",
      "target": "h95"
    },
    {
      "type": "inclusion",
      "source": "19",
      "target": "h19"
    },
    {
      "type": "inclusion",
      "source": "19",
      "target": "h43"
    },
    {
      "type": "inclusion",
      "source": "19",
      "target": "h73"
    },
    {
      "type": "inclusion",
      "source": "19",
      "target": "h82"
    },
    {
      "type": "inclusion",
      "source": "20",
      "target": "h12"
    },
    {
      "type": "inclusion",
      "source": "20",
      "target": "h20"
    },
    {
      "type": "inclusion",
      "source": "20",
      "target": "h28"
    },
    {
      "type": "inclusion",
      "source": "20",
      "target": "h62"
    },
    {
      "type": "inclusion",
      "source": "20",
      "target": "h63"
    },
    {
      "type": "inclusion",
      "source": "20",
      "target": "h75"
    },
    {
      "type": "inclusion",
      "source": "21",
      "target": "h21"
    },
    {
      "type": "inclusion",
      "source": "21",
      "target": "h28"
    },
    {
      "type": "inclusion",
      "source": "21",
      "target": "h64"
    },
    {
      "type": "inclusion",
      "source": "22",
      "target": "h21"
    },
    {
      "type": "inclusion",
      "source": "22",
      "target": "h22"
    },
    {
      "type": "inclusion",
      "source": "22",
      "target": "h25"
    },
    {
      "type": "inclusion",
      "source": "22",
      "target": "h29"
    },
    {
      "type": "inclusion",
      "source": "22",
      "target": "h30"
    },
    {
      "type": "inclusion",
      "source": "22",
      "target": "h33"
    },
    {
      "type": "inclusion",
      "source": "22",
      "target": "h82"
    },
    {
      "type": "inclusion",
      "source": "23",
      "target": "h9"
    },
    {
      "type": "inclusion",
      "source": "23",
      "target": "h23"
    },
    {
      "type": "inclusion",
      "source": "23",
      "target": "h56"
    },
    {
      "type": "inclusion",
      "source": "23",
      "target": "h72"
    },
    {
      "type": "inclusion",
      "source": "23",
      "target": "h76"
    },
    {
      "type": "inclusion",
      "source": "23",
      "target": "h83"
    },
    {
      "type": "inclusion",
      "source": "23",
      "target": "h84"
    },
    {
      "type": "inclusion",
      "source": "24",
      "target": "h23"
    },
    {
      "type": "inclusion",
      "source": "24",
      "target": "h24"
    },
    {
      "type": "inclusion",
      "source": "24",
      "target": "h92"
    },
    {
      "type": "inclusion",
      "source": "24",
      "target": "h93"
    },
    {
      "type": "inclusion",
      "source": "25",
      "target": "h9"
    },
    {
      "type": "inclusion",
      "source": "25",
      "target": "h11"
    },
    {
      "type": "inclusion",
      "source": "25",
      "target": "h18"
    },
    {
      "type": "inclusion",
      "source": "25",
      "target": "h25"
    },
    {
      "type": "inclusion",
      "source": "25",
      "target": "h58"
    },
    {
      "type": "inclusion",
      "source": "26",
      "target": "h4"
    },
    {
      "type": "inclusion",
      "source": "26",
      "target": "h14"
    },
    {
      "type": "inclusion",
      "source": "26",
      "target": "h26"
    },
    {
      "type": "inclusion",
      "source": "26",
      "target": "h78"
    },
    {
      "type": "inclusion",
      "source": "26",
      "target": "h88"
    },
    {
      "type": "inclusion",
      "source": "27",
      "target": "h20"
    },
    {
      "type": "inclusion",
      "source": "27",
      "target": "h27"
    },
    {
      "type": "inclusion",
      "source": "27",
      "target": "h60"
    },
    {
      "type": "inclusion",
      "source": "27",
      "target": "h70"
    },
    {
      "type": "inclusion",
      "source": "27",
      "target": "h72"
    },
    {
      "type": "inclusion",
      "source": "28",
      "target": "h28"
    },
    {
      "type": "inclusion",
      "source": "28",
      "target": "h29"
    },
    {
      "type": "inclusion",
      "source": "28",
      "target": "h40"
    },
    {
      "type": "inclusion",
      "source": "28",
      "target": "h62"
    },
    {
      "type": "inclusion",
      "source": "28",
      "target": "h63"
    },
    {
      "type": "inclusion",
      "source": "28",
      "target": "h83"
    },
    {
      "type": "inclusion",
      "source": "28",
      "target": "h85"
    },
    {
      "type": "inclusion",
      "source": "28",
      "target": "h88"
    },
    {
      "type": "inclusion",
      "source": "29",
      "target": "h0"
    },
    {
      "type": "inclusion",
      "source": "29",
      "target": "h24"
    },
    {
      "type": "inclusion",
      "source": "29",
      "target": "h29"
    },
    {
      "type": "inclusion",
      "source": "29",
      "target": "h40"
    },
    {
      "type": "inclusion",
      "source": "30",
      "target": "h30"
    },
    {
      "type": "inclusion",
      "source": "30",
      "target": "h35"
    },
    {
      "type": "inclusion",
      "source": "30",
      "target": "h59"
    },
    {
      "type": "inclusion",
      "source": "30",
      "target": "h64"
    },
    {
      "type": "inclusion",
      "source": "30",
      "target": "h74"
    },
    {
      "type": "inclusion",
      "source": "31",
      "target": "h31"
    },
    {
      "type": "inclusion",
      "source": "31",
      "target": "h35"
    },
    {
      "type": "inclusion",
      "source": "31",
      "target": "h72"
    },
    {
      "type": "inclusion",
      "source": "31",
      "target": "h76"
    },
    {
      "type": "inclusion",
      "source": "31",
      "target": "h86"
    },
    {
      "type": "inclusion",
      "source": "32",
      "target": "h23"
    },
    {
      "type": "inclusion",
      "source": "32",
      "target": "h32"
    },
    {
      "type": "inclusion",
      "source": "32",
      "target": "h33"
    },
    {
      "type": "inclusion",
      "source": "32",
      "target": "h36"
    },
    {
      "type": "inclusion",
      "source": "32",
      "target": "h38"
    },
    {
      "type": "inclusion",
      "source": "32",
      "target": "h77"
    },
    {
      "type": "inclusion",
      "source": "33",
      "target": "h19"
    },
    {
      "type": "inclusion",
      "source": "33",
      "target": "h33"
    },
    {
      "type": "inclusion",
      "source": "33",
      "target": "h89"
    },
    {
      "type": "inclusion",
      "source": "33",
      "target": "h93"
    },
    {
      "type": "inclusion",
      "source": "34",
      "target": "h28"
    },
    {
      "type": "inclusion",
      "source": "34",
      "target": "h34"
    },
    {
      "type": "inclusion",
      "source": "34",
      "target": "h39"
    },
    {
      "type": "inclusion",
      "source": "34",
      "target": "h45"
    },
    {
      "type": "inclusion",
      "source": "34",
      "target": "h99"
    },
    {
      "type": "inclusion",
      "source": "35",
      "target": "h3"
    },
    {
      "type": "inclusion",
      "source": "35",
      "target": "h18"
    },
    {
      "type": "inclusion",
      "source": "35",
      "target": "h30"
    },
    {
      "type": "inclusion",
      "source": "35",
      "target": "h35"
    },
    {
      "type": "inclusion",
      "source": "35",
      "target": "h65"
    },
    {
      "type": "inclusion",
      "source": "35",
      "target": "h94"
    },
    {
      "type": "inclusion",
      "source": "36",
      "target": "h12"
    },
    {
      "type": "inclusion",
      "source": "36",
      "target": "h36"
    },
    {
      "type": "inclusion",
      "source": "36",
      "target": "h53"
    },
    {
      "type": "inclusion",
      "source": "36",
      "target": "h94"
    },
    {
      "type": "inclusion",
      "source": "37",
      "target": "h0"
    },
    {
      "type": "inclusion",
      "source": "37",
      "target": "h37"
    },
    {
      "type": "inclusion",
      "source": "37",
      "target": "h70"
    },
    {
      "type": "inclusion",
      "source": "38",
      "target": "h13"
    },
    {
      "type": "inclusion",
      "source": "38",
      "target": "h33"
    },
    {
      "type": "inclusion",
      "source": "38",
      "target": "h38"
    },
    {
      "type": "inclusion",
      "source": "38",
      "target": "h68"
    },
    {
      "type": "inclusion",
      "source": "38",
      "target": "h70"
    },
    {
      "type": "inclusion",
      "source": "39",
      "target": "h14"
    },
    {
      "type": "inclusion",
      "source": "39",
      "target": "h31"
    },
    {
      "type": "inclusion",
      "source": "39",
      "target": "h39"
    },
    {
      "type": "inclusion",
      "source": "39",
      "target": "h96"
    },
    {
      "type": "inclusion",
      "source": "40",
      "target": "h40"
    },
    {
      "type": "inclusion",
      "source": "40",
      "target": "h55"
    },
    {
      "type": "inclusion",
      "source": "40",
      "target": "h70"
    },
    {
      "type": "inclusion",
      "source": "40",
      "target": "h84"
    },
    {
      "type": "inclusion",
      "source": "41",
      "target": "h21"
    },
    {
      "type": "inclusion",
      "source": "41",
      "target": "h35"
    },
    {
      "type": "inclusion",
      "source": "41",
      "target": "h41"
    },
    {
      "type": "inclusion",
      "source": "41",
      "target": "h50"
    },
    {
      "type": "inclusion",
      "source": "41",
      "target": "h73"
    },
    {
      "type": "inclusion",
      "source": "42",
      "target": "h23"
    },
    {
      "type": "inclusion",
      "source": "42",
      "target": "h42"
    },
    {
      "type": "inclusion",
      "source": "42",
      "target": "h56"
    },
    {
      "type": "inclusion",
      "source": "43",
      "target": "h0"
    },
    {
      "type": "inclusion",
      "source": "43",
      "target": "h31"
    },
    {
      "type": "inclusion",
      "source": "43",
      "target": "h36"
    },
    {
      "type": "inclusion",
      "source": "43",
      "target": "h43"
    },
    {
      "type": "inclusion",
      "source": "44",
      "target": "h14"
    },
    {
      "type": "inclusion",
      "source": "44",
      "target": "h22"
    },
    {
      "type": "inclusion",
      "source": "44",
      "target": "h44"
    },
    {
      "type": "inclusion",
      "source": "45",
      "target": "h2"
    },
    {
      "type": "inclusion",
      "source": "45",
      "target": "h42"
    },
    {
      "type": "inclusion",
      "source": "45",
      "target": "h45"
    },
    {
      "type": "inclusion",
      "source": "45",
      "target": "h53"
    },
    {
      "type": "inclusion",
      "source": "46",
      "target": "h12"
    },
    {
      "type": "inclusion",
      "source": "46",
      "target": "h46"
    },
    {
      "type": "inclusion",
      "source": "46",
      "target": "h95"
    },
    {
      "type": "inclusion",
      "source": "47",
      "target": "h27"
    },
    {
      "type": "inclusion",
      "source": "47",
      "target": "h47"
    },
    {
      "type": "inclusion",
      "source": "47",
      "target": "h83"
    },
    {
      "type": "inclusion",
      "source": "47",
      "target": "h96"
    },
    {
      "type": "inclusion",
      "source": "48",
      "target": "h48"
    },
    {
      "type": "inclusion",
      "source": "48",
      "target": "h51"
    },
    {
      "type": "inclusion",
      "source": "49",
      "target": "h49"
    },
    {
      "type": "inclusion",
      "source": "49",
      "target": "h57"
    },
    {
      "type": "inclusion",
      "source": "49",
      "target": "h74"
    },
    {
      "type": "inclusion",
      "source": "50",
      "target": "h10"
    },
    {
      "type": "inclusion",
      "source": "50",
      "target": "h36"
    },
    {
      "type": "inclusion",
      "source": "50",
      "target": "h47"
    },
    {
      "type": "inclusion",
      "source": "50",
      "target": "h50"
    },
    {
      "type": "inclusion",
      "source": "50",
      "target": "h83"
    },
    {
      "type": "inclusion",
      "source": "51",
      "target": "h19"
    },
    {
      "type": "inclusion",
      "source": "51",
      "target": "h29"
    },
    {
      "type": "inclusion",
      "source": "51",
      "target": "h47"
    },
    {
      "type": "inclusion",
      "source": "51",
      "target": "h51"
    },
    {
      "type": "inclusion",
      "source": "51",
      "target": "h82"
    },
    {
      "type": "inclusion",
      "source": "52",
      "target": "h5"
    },
    {
      "type": "inclusion",
      "source": "52",
      "target": "h23"
    },
    {
      "type": "inclusion",
      "source": "52",
      "target": "h36"
    },
    {
      "type": "inclusion",
      "source": "52",
      "target": "h52"
    },
    {
      "type": "inclusion",
      "source": "52",
      "target": "h53"
    },
    {
      "type": "inclusion",
      "source": "52",
      "target": "h61"
    },
    {
      "type": "inclusion",
      "source": "52",
      "target": "h64"
    },
    {
      "type": "inclusion",
      "source": "52",
      "target": "h66"
    },
    {
      "type": "inclusion",
      "source": "52",
      "target": "h74"
    },
    {
      "type": "inclusion",
      "source": "52",
      "target": "h84"
    },
    {
      "type": "inclusion",
      "source": "52",
      "target": "h94"
    },
    {
      "type": "inclusion",
      "source": "53",
      "target": "h53"
    },
    {
      "type": "inclusion",
      "source": "53",
      "target": "h99"
    },
    {
      "type": "inclusion",
      "source": "54",
      "target": "h54"
    },
    {
      "type": "inclusion",
      "source": "54",
      "target": "h61"
    },
    {
      "type": "inclusion",
      "source": "54",
      "target": "h62"
    },
    {
      "type": "inclusion",
      "source": "54",
      "target": "h96"
    },
    {
      "type": "inclusion",
      "source": "54",
      "target": "h98"
    },
    {
      "type": "inclusion",
      "source": "55",
      "target": "h8"
    },
    {
      "type": "inclusion",
      "source": "55",
      "target": "h55"
    },
    {
      "type": "inclusion",
      "source": "55",
      "target": "h79"
    },
    {
      "type": "inclusion",
      "source": "56",
      "target": "h6"
    },
    {
      "type": "inclusion",
      "source": "56",
      "target": "h9"
    },
    {
      "type": "inclusion",
      "source": "56",
      "target": "h56"
    },
    {
      "type": "inclusion",
      "source": "57",
      "target": "h10"
    },
    {
      "type": "inclusion",
      "source": "57",
      "target": "h57"
    },
    {
      "type": "inclusion",
      "source": "57",
      "target": "h84"
    },
    {
      "type": "inclusion",
      "source": "58",
      "target": "h26"
    },
    {
      "type": "inclusion",
      "source": "58",
      "target": "h32"
    },
    {
      "type": "inclusion",
      "source": "58",
      "target": "h58"
    },
    {
      "type": "inclusion",
      "source": "58",
      "target": "h63"
    },
    {
      "type": "inclusion",
      "source": "58",
      "target": "h70"
    },
    {
      "type": "inclusion",
      "source": "59",
      "target": "h8"
    },
    {
      "type": "inclusion",
      "source": "59",
      "target": "h59"
    },
    {
      "type": "inclusion",
      "source": "60",
      "target": "h51"
    },
    {
      "type": "inclusion",
      "source": "60",
      "target": "h55"
    },
    {
      "type": "inclusion",
      "source": "60",
      "target": "h60"
    },
    {
      "type": "inclusion",
      "source": "60",
      "target": "h98"
    },
    {
      "type": "inclusion",
      "source": "60",
      "target": "h99"
    },
    {
      "type": "inclusion",
      "source": "61",
      "target": "h9"
    },
    {
      "type": "inclusion",
      "source": "61",
      "target": "h48"
    },
    {
      "type": "inclusion",
      "source": "61",
      "target": "h61"
    },
    {
      "type": "inclusion",
      "source": "61",
      "target": "h87"
    },
    {
      "type": "inclusion",
      "source": "62",
      "target": "h19"
    },
    {
      "type": "inclusion",
      "source": "62",
      "target": "h42"
    },
    {
      "type": "inclusion",
      "source": "62",
      "target": "h48"
    },
    {
      "type": "inclusion",
      "source": "62",
      "target": "h62"
    },
    {
      "type": "inclusion",
      "source": "62",
      "target": "h70"
    },
    {
      "type": "inclusion",
      "source": "62",
      "target": "h78"
    },
    {
      "type": "inclusion",
      "source": "63",
      "target": "h24"
    },
    {
      "type": "inclusion",
      "source": "63",
      "target": "h50"
    },
    {
      "type": "inclusion",
      "source": "63",
      "target": "h63"
    },
    {
      "type": "inclusion",
      "source": "63",
      "target": "h81"
    },
    {
      "type": "inclusion",
      "source": "64",
      "target": "h35"
    },
    {
      "type": "inclusion",
      "source": "64",
      "target": "h41"
    },
    {
      "type": "inclusion",
      "source": "64",
      "target": "h64"
    },
    {
      "type": "inclusion",
      "source": "64",
      "target": "h76"
    },
    {
      "type": "inclusion",
      "source": "64",
      "target": "h97"
    },
    {
      "type": "inclusion",
      "source": "65",
      "target": "h4"
    },
    {
      "type": "inclusion",
      "source": "65",
      "target": "h6"
    },
    {
      "type": "inclusion",
      "source": "65",
      "target": "h30"
    },
    {
      "type": "inclusion",
      "source": "65",
      "target": "h65"
    },
    {
      "type": "inclusion",
      "source": "66",
      "target": "h5"
    },
    {
      "type": "inclusion",
      "source": "66",
      "target": "h10"
    },
    {
      "type": "inclusion",
      "source": "66",
      "target": "h21"
    },
    {
      "type": "inclusion",
      "source": "66",
      "target": "h52"
    },
    {
      "type": "inclusion",
      "source": "66",
      "target": "h66"
    },
    {
      "type": "inclusion",
      "source": "67",
      "target": "h67"
    },
    {
      "type": "inclusion",
      "source": "67",
      "target": "h95"
    },
    {
      "type": "inclusion",
      "source": "68",
      "target": "h27"
    },
    {
      "type": "inclusion",
      "source": "68",
      "target": "h60"
    },
    {
      "type": "inclusion",
      "source": "68",
      "target": "h68"
    },
    {
      "type": "inclusion",
      "source": "68",
      "target": "h81"
    },
    {
      "type": "inclusion",
      "source": "69",
      "target": "h17"
    },
    {
      "type": "inclusion",
      "source": "69",
      "target": "h68"
    },
    {
      "type": "inclusion",
      "source": "69",
      "target": "h69"
    },
    {
      "type": "inclusion",
      "source": "69",
      "target": "h71"
    },
    {
      "type": "inclusion",
      "source": "69",
      "target": "h81"
    },
    {
      "type": "inclusion",
      "source": "69",
      "target": "h85"
    },
    {
      "type": "inclusion",
      "source": "69",
      "target": "h91"
    },
    {
      "type": "inclusion",
      "source": "70",
      "target": "h56"
    },
    {
      "type": "inclusion",
      "source": "70",
      "target": "h70"
    },
    {
      "type": "inclusion",
      "source": "70",
      "target": "h80"
    },
    {
      "type": "inclusion",
      "source": "71",
      "target": "h17"
    },
    {
      "type": "inclusion",
      "source": "71",
      "target": "h71"
    },
    {
      "type": "inclusion",
      "source": "71",
      "target": "h91"
    },
    {
      "type": "inclusion",
      "source": "72",
      "target": "h4"
    },
    {
      "type": "inclusion",
      "source": "72",
      "target": "h15"
    },
    {
      "type": "inclusion",
      "source": "72",
      "target": "h31"
    },
    {
      "type": "inclusion",
      "source": "72",
      "target": "h56"
    },
    {
      "type": "inclusion",
      "source": "72",
      "target": "h72"
    },
    {
      "type": "inclusion",
      "source": "72",
      "target": "h99"
    },
    {
      "type": "inclusion",
      "source": "73",
      "target": "h37"
    },
    {
      "type": "inclusion",
      "source": "73",
      "target": "h44"
    },
    {
      "type": "inclusion",
      "source": "73",
      "target": "h46"
    },
    {
      "type": "inclusion",
      "source": "73",
      "target": "h56"
    },
    {
      "type": "inclusion",
      "source": "73",
      "target": "h73"
    },
    {
      "type": "inclusion",
      "source": "73",
      "target": "h77"
    },
    {
      "type": "inclusion",
      "source": "73",
      "target": "h81"
    },
    {
      "type": "inclusion",
      "source": "73",
      "target": "h88"
    },
    {
      "type": "inclusion",
      "source": "73",
      "target": "h98"
    },
    {
      "type": "inclusion",
      "source": "74",
      "target": "h10"
    },
    {
      "type": "inclusion",
      "source": "74",
      "target": "h19"
    },
    {
      "type": "inclusion",
      "source": "74",
      "target": "h49"
    },
    {
      "type": "inclusion",
      "source": "74",
      "target": "h51"
    },
    {
      "type": "inclusion",
      "source": "74",
      "target": "h73"
    },
    {
      "type": "inclusion",
      "source": "74",
      "target": "h74"
    },
    {
      "type": "inclusion",
      "source": "75",
      "target": "h1"
    },
    {
      "type": "inclusion",
      "source": "75",
      "target": "h9"
    },
    {
      "type": "inclusion",
      "source": "75",
      "target": "h23"
    },
    {
      "type": "inclusion",
      "source": "75",
      "target": "h39"
    },
    {
      "type": "inclusion",
      "source": "75",
      "target": "h75"
    },
    {
      "type": "inclusion",
      "source": "76",
      "target": "h6"
    },
    {
      "type": "inclusion",
      "source": "76",
      "target": "h21"
    },
    {
      "type": "inclusion",
      "source": "76",
      "target": "h31"
    },
    {
      "type": "inclusion",
      "source": "76",
      "target": "h76"
    },
    {
      "type": "inclusion",
      "source": "77",
      "target": "h12"
    },
    {
      "type": "inclusion",
      "source": "77",
      "target": "h77"
    },
    {
      "type": "inclusion",
      "source": "77",
      "target": "h98"
    },
    {
      "type": "inclusion",
      "source": "78",
      "target": "h27"
    },
    {
      "type": "inclusion",
      "source": "78",
      "target": "h44"
    },
    {
      "type": "inclusion",
      "source": "78",
      "target": "h51"
    },
    {
      "type": "inclusion",
      "source": "78",
      "target": "h78"
    },
    {
      "type": "inclusion",
      "source": "78",
      "target": "h82"
    },
    {
      "type": "inclusion",
      "source": "79",
      "target": "h8"
    },
    {
      "type": "inclusion",
      "source": "79",
      "target": "h15"
    },
    {
      "type": "inclusion",
      "source": "79",
      "target": "h79"
    },
    {
      "type": "inclusion",
      "source": "79",
      "target": "h90"
    },
    {
      "type": "inclusion",
      "source": "79",
      "target": "h98"
    },
    {
      "type": "inclusion",
      "source": "80",
      "target": "h67"
    },
    {
      "type": "inclusion",
      "source": "80",
      "target": "h80"
    },
    {
      "type": "inclusion",
      "source": "80",
      "target": "h90"
    },
    {
      "type": "inclusion",
      "source": "81",
      "target": "h43"
    },
    {
      "type": "inclusion",
      "source": "81",
      "target": "h49"
    },
    {
      "type": "inclusion",
      "source": "81",
      "target": "h72"
    },
    {
      "type": "inclusion",
      "source": "81",
      "target": "h81"
    },
    {
      "type": "inclusion",
      "source": "82",
      "target": "h29"
    },
    {
      "type": "inclusion",
      "source": "82",
      "target": "h82"
    },
    {
      "type": "inclusion",
      "source": "83",
      "target": "h1"
    },
    {
      "type": "inclusion",
      "source": "83",
      "target": "h20"
    },
    {
      "type": "inclusion",
      "source": "83",
      "target": "h54"
    },
    {
      "type": "inclusion",
      "source": "83",
      "target": "h55"
    },
    {
      "type": "inclusion",
      "source": "83",
      "target": "h83"
    },
    {
      "type": "inclusion",
      "source": "83",
      "target": "h94"
    },
    {
      "type": "inclusion",
      "source": "84",
      "target": "h36"
    },
    {
      "type": "inclusion",
      "source": "84",
      "target": "h55"
    },
    {
      "type": "inclusion",
      "source": "84",
      "target": "h84"
    },
    {
      "type": "inclusion",
      "source": "85",
      "target": "h53"
    },
    {
      "type": "inclusion",
      "source": "85",
      "target": "h85"
    },
    {
      "type": "inclusion",
      "source": "85",
      "target": "h94"
    },
    {
      "type": "inclusion",
      "source": "85",
      "target": "h96"
    },
    {
      "type": "inclusion",
      "source": "86",
      "target": "h38"
    },
    {
      "type": "inclusion",
      "source": "86",
      "target": "h57"
    },
    {
      "type": "inclusion",
      "source": "86",
      "target": "h66"
    },
    {
      "type": "inclusion",
      "source": "86",
      "target": "h75"
    },
    {
      "type": "inclusion",
      "source": "86",
      "target": "h86"
    },
    {
      "type": "inclusion",
      "source": "87",
      "target": "h34"
    },
    {
      "type": "inclusion",
      "source": "87",
      "target": "h55"
    },
    {
      "type": "inclusion",
      "source": "87",
      "target": "h87"
    },
    {
      "type": "inclusion",
      "source": "88",
      "target": "h3"
    },
    {
      "type": "inclusion",
      "source": "88",
      "target": "h81"
    },
    {
      "type": "inclusion",
      "source": "88",
      "target": "h88"
    },
    {
      "type": "inclusion",
      "source": "89",
      "target": "h18"
    },
    {
      "type": "inclusion",
      "source": "89",
      "target": "h28"
    },
    {
      "type": "inclusion",
      "source": "89",
      "target": "h31"
    },
    {
      "type": "inclusion",
      "source": "89",
      "target": "h33"
    },
    {
      "type": "inclusion",
      "source": "89",
      "target": "h77"
    },
    {
      "type": "inclusion",
      "source": "89",
      "target": "h78"
    },
    {
      "type": "inclusion",
      "source": "89",
      "target": "h82"
    },
    {
      "type": "inclusion",
      "source": "89",
      "target": "h89"
    },
    {
      "type": "inclusion",
      "source": "90",
      "target": "h58"
    },
    {
      "type": "inclusion",
      "source": "90",
      "target": "h90"
    },
    {
      "type": "inclusion",
      "source": "91",
      "target": "h6"
    },
    {
      "type": "inclusion",
      "source": "91",
      "target": "h9"
    },
    {
      "type": "inclusion",
      "source": "91",
      "target": "h12"
    },
    {
      "type": "inclusion",
      "source": "91",
      "target": "h80"
    },
    {
      "type": "inclusion",
      "source": "91",
      "target": "h91"
    },
    {
      "type": "inclusion",
      "source": "91",
      "target": "h92"
    },
    {
      "type": "inclusion",
      "source": "92",
      "target": "h9"
    },
    {
      "type": "inclusion",
      "source": "92",
      "target": "h31"
    },
    {
      "type": "inclusion",
      "source": "92",
      "target": "h76"
    },
    {
      "type": "inclusion",
      "source": "92",
      "target": "h92"
    },
    {
      "type": "inclusion",
      "source": "93",
      "target": "h6"
    },
    {
      "type": "inclusion",
      "source": "93",
      "target": "h10"
    },
    {
      "type": "inclusion",
      "source": "93",
      "target": "h27"
    },
    {
      "type": "inclusion",
      "source": "93",
      "target": "h34"
    },
    {
      "type": "inclusion",
      "source": "93",
      "target": "h36"
    },
    {
      "type": "inclusion",
      "source": "93",
      "target": "h93"
    },
    {
      "type": "inclusion",
      "source": "94",
      "target": "h3"
    },
    {
      "type": "inclusion",
      "source": "94",
      "target": "h20"
    },
    {
      "type": "inclusion",
      "source": "94",
      "target": "h27"
    },
    {
      "type": "inclusion",
      "source": "94",
      "target": "h68"
    },
    {
      "type": "inclusion",
      "source": "94",
      "target": "h84"
    },
    {
      "type": "inclusion",
      "source": "94",
      "target": "h94"
    },
    {
      "type": "inclusion",
      "source": "95",
      "target": "h21"
    },
    {
      "type": "inclusion",
      "source": "95",
      "target": "h74"
    },
    {
      "type": "inclusion",
      "source": "95",
      "target": "h95"
    },
    {
      "type": "inclusion",
      "source": "96",
      "target": "h83"
    },
    {
      "type": "inclusion",
      "source": "96",
      "target": "h96"
    },
    {
      "type": "inclusion",
      "source": "97",
      "target": "h3"
    },
    {
      "type": "inclusion",
      "source": "97",
      "target": "h8"
    },
    {
      "type": "inclusion",
      "source": "97",
      "target": "h39"
    },
    {
      "type": "inclusion",
      "source": "97",
      "target": "h55"
    },
    {
      "type": "inclusion",
      "source": "97",
      "target": "h93"
    },
    {
      "type": "inclusion",
      "source": "97",
      "target": "h97"
    },
    {
      "type": "inclusion",
      "source": "98",
      "target": "h2"
    },
    {
      "type": "inclusion",
      "source": "98",
      "target": "h13"
    },
    {
      "type": "inclusion",
      "source": "98",
      "target": "h98"
    },
    {
      "type": "inclusion",
      "source": "99",
      "target": "h62"
    },
    {
      "type": "inclusion",
      "source": "99",
      "target": "h99"
    }
  ],
  "metadata": {
    "datasetName": "test",
    "edgeType": "type",
    "entityType": "type",
    "name": "name",
    "source_entity_type": "DOCUMENT",
    "target_entity_type": "PERSON",
    "time_key": "time"
  }
}